<svg width="48" height="48" viewBox="0 0 48 48" fill="none" xmlns="http://www.w3.org/2000/svg">
<path fill-rule="evenodd" clip-rule="evenodd" d="M6 24.1005C6 33.0495 12.4995 40.491 21 42V28.9995H16.5V24H21V19.9995C21 15.4995 23.8995 13.0005 28.0005 13.0005C29.2995 13.0005 30.7005 13.2 31.9995 13.3995V18H29.7C27.4995 18 27 19.0995 27 20.5005V24H31.8L31.0005 28.9995H27V42C35.5005 40.491 42 33.051 42 24.1005C42 14.145 33.9 6 24 6C14.1 6 6 14.145 6 24.1005Z" fill="white"/>
</svg>
