<svg width="36" height="36" viewBox="0 0 36 36" fill="none" xmlns="http://www.w3.org/2000/svg">
<path d="M23.835 9.86961L22.055 8.09961L12.165 17.9996L22.065 27.8996L23.835 26.1296L15.705 17.9996L23.835 9.86961Z" fill="#848689"/>
</svg>
